-- Merging decision tree log ---
manifest
ADDED from /Users/vadimzhydenko/Projects/Android/estel_drive_v2/app/src/main/AndroidManifest.xml:2:1-91:12
	package
		ADDED from /Users/vadimzhydenko/Projects/Android/estel_drive_v2/app/src/main/AndroidManifest.xml:3:5-44
		INJECTED from /Users/vadimzhydenko/Projects/Android/estel_drive_v2/app/src/main/AndroidManifest.xml
		INJECTED from /Users/vadimzhydenko/Projects/Android/estel_drive_v2/app/src/main/AndroidManifest.xml
	android:versionName
		INJECTED from /Users/vadimzhydenko/Projects/Android/estel_drive_v2/app/src/main/AndroidManifest.xml
		INJECTED from /Users/vadimzhydenko/Projects/Android/estel_drive_v2/app/src/main/AndroidManifest.xml
	xmlns:android
		ADDED from /Users/vadimzhydenko/Projects/Android/estel_drive_v2/app/src/main/AndroidManifest.xml:2:11-69
	android:versionCode
		INJECTED from /Users/vadimzhydenko/Projects/Android/estel_drive_v2/app/src/main/AndroidManifest.xml
		INJECTED from /Users/vadimzhydenko/Projects/Android/estel_drive_v2/app/src/main/AndroidManifest.xml
uses-permission#android.permission.SYSTEM_ALERT_WINDOW
ADDED from /Users/vadimzhydenko/Projects/Android/estel_drive_v2/app/src/main/AndroidManifest.xml:5:5-78
	android:name
		ADDED from /Users/vadimzhydenko/Projects/Android/estel_drive_v2/app/src/main/AndroidManifest.xml:5:22-75
uses-permission#android.permission.INTERNET
ADDED from /Users/vadimzhydenko/Projects/Android/estel_drive_v2/app/src/main/AndroidManifest.xml:6:5-67
MERGED from [com.crashlytics.sdk.android:crashlytics:2.6.8] /Users/vadimzhydenko/.android/build-cache/c2dda59bdbce7801ab1432d3886016fcb45913c6/output/AndroidManifest.xml:9:5-67
MERGED from [com.crashlytics.sdk.android:beta:1.2.5] /Users/vadimzhydenko/.android/build-cache/50410aa1f86dd279fba2581466958b2448f46be2/output/AndroidManifest.xml:9:5-67
MERGED from [com.crashlytics.sdk.android:crashlytics-core:2.3.17] /Users/vadimzhydenko/.android/build-cache/a5cbe204952951ee5679f4d7b6a058f40ecdff2c/output/AndroidManifest.xml:52:5-67
MERGED from [com.crashlytics.sdk.android:answers:1.3.13] /Users/vadimzhydenko/.android/build-cache/fe91662ee4acd04cc294cea1a6602987520cd673/output/AndroidManifest.xml:9:5-67
MERGED from [io.fabric.sdk.android:fabric:1.3.17] /Users/vadimzhydenko/.android/build-cache/02e4cc1d04d533180751f4597f52ba4eced6cd9b/output/AndroidManifest.xml:29:5-67
	android:name
		ADDED from /Users/vadimzhydenko/Projects/Android/estel_drive_v2/app/src/main/AndroidManifest.xml:6:22-64
uses-permission#android.permission.ACCESS_NETWORK_STATE
ADDED from /Users/vadimzhydenko/Projects/Android/estel_drive_v2/app/src/main/AndroidManifest.xml:7:5-78
	android:name
		ADDED from /Users/vadimzhydenko/Projects/Android/estel_drive_v2/app/src/main/AndroidManifest.xml:7:22-76
uses-permission#android.permission.ACCESS_WIFI_STATE
ADDED from /Users/vadimzhydenko/Projects/Android/estel_drive_v2/app/src/main/AndroidManifest.xml:8:5-76
	android:name
		ADDED from /Users/vadimzhydenko/Projects/Android/estel_drive_v2/app/src/main/AndroidManifest.xml:8:22-73
uses-permission#android.permission.WRITE_EXTERNAL_STORAGE
ADDED from /Users/vadimzhydenko/Projects/Android/estel_drive_v2/app/src/main/AndroidManifest.xml:9:5-81
	android:name
		ADDED from /Users/vadimzhydenko/Projects/Android/estel_drive_v2/app/src/main/AndroidManifest.xml:9:22-78
uses-permission#android.permission.READ_EXTERNAL_STORAGE
ADDED from /Users/vadimzhydenko/Projects/Android/estel_drive_v2/app/src/main/AndroidManifest.xml:10:5-80
	android:name
		ADDED from /Users/vadimzhydenko/Projects/Android/estel_drive_v2/app/src/main/AndroidManifest.xml:10:22-77
uses-permission#android.permission.VIBRATE
ADDED from /Users/vadimzhydenko/Projects/Android/estel_drive_v2/app/src/main/AndroidManifest.xml:11:5-66
	android:name
		ADDED from /Users/vadimzhydenko/Projects/Android/estel_drive_v2/app/src/main/AndroidManifest.xml:11:22-63
uses-permission#android.permission.CLEAR_APP_CACHE
ADDED from /Users/vadimzhydenko/Projects/Android/estel_drive_v2/app/src/main/AndroidManifest.xml:12:5-73
	android:name
		ADDED from /Users/vadimzhydenko/Projects/Android/estel_drive_v2/app/src/main/AndroidManifest.xml:12:22-71
uses-permission#android.permission.WAKE_LOCK
ADDED from /Users/vadimzhydenko/Projects/Android/estel_drive_v2/app/src/main/AndroidManifest.xml:13:5-67
	android:name
		ADDED from /Users/vadimzhydenko/Projects/Android/estel_drive_v2/app/src/main/AndroidManifest.xml:13:22-65
uses-permission#android.permission.RECEIVE_BOOT_COMPLETED
ADDED from /Users/vadimzhydenko/Projects/Android/estel_drive_v2/app/src/main/AndroidManifest.xml:14:5-80
	android:name
		ADDED from /Users/vadimzhydenko/Projects/Android/estel_drive_v2/app/src/main/AndroidManifest.xml:14:22-78
application
ADDED from /Users/vadimzhydenko/Projects/Android/estel_drive_v2/app/src/main/AndroidManifest.xml:16:5-90:19
MERGED from [com.android.support:design:25.3.1] /Users/vadimzhydenko/.android/build-cache/88bd9cf3c94b4ed8637c89ddb9bde07248f73efb/output/AndroidManifest.xml:29:5-20
MERGED from [com.android.support:transition:25.3.1] /Users/vadimzhydenko/.android/build-cache/62ab71df10c9f1ba3ef428de3f92617c6d18e032/output/AndroidManifest.xml:26:5-20
MERGED from [com.android.support.constraint:constraint-layout:1.0.2] /Users/vadimzhydenko/.android/build-cache/4e9fc51bdd9997016944ef273f496f8fe1e43f3c/output/AndroidManifest.xml:9:5-20
MERGED from [com.facebook.android:facebook-android-sdk:4.25.0] /Users/vadimzhydenko/.android/build-cache/84c48e1c164ec1a7926c6a0b2c118c1b659cd546/output/AndroidManifest.xml:28:5-48:19
MERGED from [com.android.support:customtabs:25.3.1] /Users/vadimzhydenko/.android/build-cache/3b5b67c11931f8a970ba10a2df78eb36bc029c11/output/AndroidManifest.xml:26:5-20
MERGED from [com.github.iammert:MaterialIntroView:1.5.2] /Users/vadimzhydenko/.android/build-cache/e896a3510e38ff1a3df11c84904886a5d75aaee2/output/AndroidManifest.xml:11:5-15:19
MERGED from [com.android.support:appcompat-v7:25.3.1] /Users/vadimzhydenko/.android/build-cache/879b255e828808b2cb1eda5d2bc38f288e551266/output/AndroidManifest.xml:29:5-20
MERGED from [com.android.support:animated-vector-drawable:25.3.1] /Users/vadimzhydenko/.android/build-cache/1fe06ca1ee5c9481f71ae7be38984b0e9e2cff45/output/AndroidManifest.xml:26:5-20
MERGED from [com.android.support:support-vector-drawable:25.3.1] /Users/vadimzhydenko/.android/build-cache/d6ff55d24045fbfb2aeb896fe5df0fde0392a395/output/AndroidManifest.xml:26:5-20
MERGED from [com.android.support:cardview-v7:25.3.1] /Users/vadimzhydenko/.android/build-cache/9d3000d94cc3773f485f2869754bec94d76ea306/output/AndroidManifest.xml:26:5-20
MERGED from [com.jpardogo.materialtabstrip:library:1.1.1] /Users/vadimzhydenko/.android/build-cache/32627316e6b130025e4b5136d4b24f1a8b4f2556/output/AndroidManifest.xml:9:5-20
MERGED from [com.crashlytics.sdk.android:crashlytics:2.6.8] /Users/vadimzhydenko/.android/build-cache/c2dda59bdbce7801ab1432d3886016fcb45913c6/output/AndroidManifest.xml:11:5-20
MERGED from [com.crashlytics.sdk.android:beta:1.2.5] /Users/vadimzhydenko/.android/build-cache/50410aa1f86dd279fba2581466958b2448f46be2/output/AndroidManifest.xml:11:5-20
MERGED from [com.crashlytics.sdk.android:crashlytics-core:2.3.17] /Users/vadimzhydenko/.android/build-cache/a5cbe204952951ee5679f4d7b6a058f40ecdff2c/output/AndroidManifest.xml:54:5-20
MERGED from [com.crashlytics.sdk.android:answers:1.3.13] /Users/vadimzhydenko/.android/build-cache/fe91662ee4acd04cc294cea1a6602987520cd673/output/AndroidManifest.xml:11:5-20
MERGED from [io.fabric.sdk.android:fabric:1.3.17] /Users/vadimzhydenko/.android/build-cache/02e4cc1d04d533180751f4597f52ba4eced6cd9b/output/AndroidManifest.xml:31:5-20
MERGED from [com.android.support:support-v4:25.3.1] /Users/vadimzhydenko/.android/build-cache/b602ab76a11c08f67e7aab7e0717cc1af49002c8/output/AndroidManifest.xml:29:5-20
MERGED from [com.android.support:support-fragment:25.3.1] /Users/vadimzhydenko/.android/build-cache/1411b7096fd66e5a1227cab71994a49082b7e131/output/AndroidManifest.xml:29:5-20
MERGED from [com.android.support:support-media-compat:25.3.1] /Users/vadimzhydenko/.android/build-cache/cdd53640912ece104106ed986319ba1dac341871/output/AndroidManifest.xml:29:5-20
MERGED from [com.android.support:support-core-ui:25.3.1] /Users/vadimzhydenko/.android/build-cache/bd7923df3ad13b2bab6e41456dedc19debc797ef/output/AndroidManifest.xml:29:5-20
MERGED from [com.android.support:support-core-utils:25.3.1] /Users/vadimzhydenko/.android/build-cache/4ac593bd09213d150f6a9679353a88a54954573a/output/AndroidManifest.xml:29:5-20
MERGED from [com.android.support:support-compat:25.3.1] /Users/vadimzhydenko/.android/build-cache/bd9f17de56356560f8b0ba5daced5e2ae69aca2b/output/AndroidManifest.xml:29:5-20
	android:label
		ADDED from /Users/vadimzhydenko/Projects/Android/estel_drive_v2/app/src/main/AndroidManifest.xml:19:9-41
	android:supportsRtl
		ADDED from /Users/vadimzhydenko/Projects/Android/estel_drive_v2/app/src/main/AndroidManifest.xml:20:9-35
	android:allowBackup
		ADDED from /Users/vadimzhydenko/Projects/Android/estel_drive_v2/app/src/main/AndroidManifest.xml:17:9-35
	android:icon
		ADDED from /Users/vadimzhydenko/Projects/Android/estel_drive_v2/app/src/main/AndroidManifest.xml:18:9-43
	android:largeHeap
		ADDED from /Users/vadimzhydenko/Projects/Android/estel_drive_v2/app/src/main/AndroidManifest.xml:21:9-33
	android:theme
		ADDED from /Users/vadimzhydenko/Projects/Android/estel_drive_v2/app/src/main/AndroidManifest.xml:22:9-65
meta-data#io.fabric.ApiKey
ADDED from /Users/vadimzhydenko/Projects/Android/estel_drive_v2/app/src/main/AndroidManifest.xml:24:9-26:71
	android:value
		ADDED from /Users/vadimzhydenko/Projects/Android/estel_drive_v2/app/src/main/AndroidManifest.xml:26:13-69
	android:name
		ADDED from /Users/vadimzhydenko/Projects/Android/estel_drive_v2/app/src/main/AndroidManifest.xml:25:13-44
meta-data#com.facebook.sdk.ApplicationId
ADDED from /Users/vadimzhydenko/Projects/Android/estel_drive_v2/app/src/main/AndroidManifest.xml:28:9-30:54
	android:value
		ADDED from /Users/vadimzhydenko/Projects/Android/estel_drive_v2/app/src/main/AndroidManifest.xml:30:13-52
	android:name
		ADDED from /Users/vadimzhydenko/Projects/Android/estel_drive_v2/app/src/main/AndroidManifest.xml:29:13-58
activity#com.zhydenko.vadim.esteldrive.Main
ADDED from /Users/vadimzhydenko/Projects/Android/estel_drive_v2/app/src/main/AndroidManifest.xml:32:9-42:20
	android:label
		ADDED from /Users/vadimzhydenko/Projects/Android/estel_drive_v2/app/src/main/AndroidManifest.xml:35:13-45
	android:configChanges
		ADDED from /Users/vadimzhydenko/Projects/Android/estel_drive_v2/app/src/main/AndroidManifest.xml:34:13-62
	android:theme
		ADDED from /Users/vadimzhydenko/Projects/Android/estel_drive_v2/app/src/main/AndroidManifest.xml:36:13-56
	android:name
		ADDED from /Users/vadimzhydenko/Projects/Android/estel_drive_v2/app/src/main/AndroidManifest.xml:33:13-62
intent-filter#android.intent.action.MAIN+android.intent.category.LAUNCHER
ADDED from /Users/vadimzhydenko/Projects/Android/estel_drive_v2/app/src/main/AndroidManifest.xml:38:13-41:29
action#android.intent.action.MAIN
ADDED from /Users/vadimzhydenko/Projects/Android/estel_drive_v2/app/src/main/AndroidManifest.xml:39:17-69
	android:name
		ADDED from /Users/vadimzhydenko/Projects/Android/estel_drive_v2/app/src/main/AndroidManifest.xml:39:25-66
category#android.intent.category.LAUNCHER
ADDED from /Users/vadimzhydenko/Projects/Android/estel_drive_v2/app/src/main/AndroidManifest.xml:40:17-77
	android:name
		ADDED from /Users/vadimzhydenko/Projects/Android/estel_drive_v2/app/src/main/AndroidManifest.xml:40:27-74
activity#com.facebook.FacebookActivity
ADDED from /Users/vadimzhydenko/Projects/Android/estel_drive_v2/app/src/main/AndroidManifest.xml:44:9-47:48
MERGED from [com.facebook.android:facebook-android-sdk:4.25.0] /Users/vadimzhydenko/.android/build-cache/84c48e1c164ec1a7926c6a0b2c118c1b659cd546/output/AndroidManifest.xml:29:9-32:66
	android:label
		ADDED from /Users/vadimzhydenko/Projects/Android/estel_drive_v2/app/src/main/AndroidManifest.xml:47:13-45
	android:configChanges
		ADDED from /Users/vadimzhydenko/Projects/Android/estel_drive_v2/app/src/main/AndroidManifest.xml:45:13-96
	android:theme
		ADDED from /Users/vadimzhydenko/Projects/Android/estel_drive_v2/app/src/main/AndroidManifest.xml:46:13-63
	android:name
		ADDED from /Users/vadimzhydenko/Projects/Android/estel_drive_v2/app/src/main/AndroidManifest.xml:44:19-63
activity#com.facebook.CustomTabActivity
ADDED from /Users/vadimzhydenko/Projects/Android/estel_drive_v2/app/src/main/AndroidManifest.xml:49:9-58:20
	android:exported
		ADDED from /Users/vadimzhydenko/Projects/Android/estel_drive_v2/app/src/main/AndroidManifest.xml:51:13-36
	android:name
		ADDED from /Users/vadimzhydenko/Projects/Android/estel_drive_v2/app/src/main/AndroidManifest.xml:50:13-58
intent-filter#android.intent.action.VIEW+android.intent.category.BROWSABLE+android.intent.category.DEFAULT
ADDED from /Users/vadimzhydenko/Projects/Android/estel_drive_v2/app/src/main/AndroidManifest.xml:52:13-57:29
action#android.intent.action.VIEW
ADDED from /Users/vadimzhydenko/Projects/Android/estel_drive_v2/app/src/main/AndroidManifest.xml:53:17-69
	android:name
		ADDED from /Users/vadimzhydenko/Projects/Android/estel_drive_v2/app/src/main/AndroidManifest.xml:53:25-66
category#android.intent.category.DEFAULT
ADDED from /Users/vadimzhydenko/Projects/Android/estel_drive_v2/app/src/main/AndroidManifest.xml:54:17-76
	android:name
		ADDED from /Users/vadimzhydenko/Projects/Android/estel_drive_v2/app/src/main/AndroidManifest.xml:54:27-73
category#android.intent.category.BROWSABLE
ADDED from /Users/vadimzhydenko/Projects/Android/estel_drive_v2/app/src/main/AndroidManifest.xml:55:17-78
	android:name
		ADDED from /Users/vadimzhydenko/Projects/Android/estel_drive_v2/app/src/main/AndroidManifest.xml:55:27-75
data
ADDED from /Users/vadimzhydenko/Projects/Android/estel_drive_v2/app/src/main/AndroidManifest.xml:56:17-61
	android:scheme
		ADDED from /Users/vadimzhydenko/Projects/Android/estel_drive_v2/app/src/main/AndroidManifest.xml:56:23-58
service#com.zhydenko.vadim.esteldrive.service.DropBoxService
ADDED from /Users/vadimzhydenko/Projects/Android/estel_drive_v2/app/src/main/AndroidManifest.xml:60:9-87
	android:name
		ADDED from /Users/vadimzhydenko/Projects/Android/estel_drive_v2/app/src/main/AndroidManifest.xml:60:18-85
receiver#com.zhydenko.vadim.esteldrive.broadcast.AlarmReceiver
ADDED from /Users/vadimzhydenko/Projects/Android/estel_drive_v2/app/src/main/AndroidManifest.xml:62:9-89
	android:name
		ADDED from /Users/vadimzhydenko/Projects/Android/estel_drive_v2/app/src/main/AndroidManifest.xml:62:19-87
receiver#com.zhydenko.vadim.esteldrive.broadcast.MainBroadcast
ADDED from /Users/vadimzhydenko/Projects/Android/estel_drive_v2/app/src/main/AndroidManifest.xml:64:9-72:20
	android:name
		ADDED from /Users/vadimzhydenko/Projects/Android/estel_drive_v2/app/src/main/AndroidManifest.xml:64:19-87
intent-filter#com.zhydenko.vadim.esteldrive.broadcast.MainBroadcast.CONTINUE+com.zhydenko.vadim.esteldrive.broadcast.MainBroadcast.DOWNLOAD+com.zhydenko.vadim.esteldrive.broadcast.MainBroadcast.NOTIFY
ADDED from /Users/vadimzhydenko/Projects/Android/estel_drive_v2/app/src/main/AndroidManifest.xml:66:13-71:29
action#com.zhydenko.vadim.esteldrive.broadcast.MainBroadcast.DOWNLOAD
ADDED from /Users/vadimzhydenko/Projects/Android/estel_drive_v2/app/src/main/AndroidManifest.xml:67:17-104
	android:name
		ADDED from /Users/vadimzhydenko/Projects/Android/estel_drive_v2/app/src/main/AndroidManifest.xml:67:25-102
action#com.zhydenko.vadim.esteldrive.broadcast.MainBroadcast.NOTIFY
ADDED from /Users/vadimzhydenko/Projects/Android/estel_drive_v2/app/src/main/AndroidManifest.xml:68:17-102
	android:name
		ADDED from /Users/vadimzhydenko/Projects/Android/estel_drive_v2/app/src/main/AndroidManifest.xml:68:25-100
action#com.zhydenko.vadim.esteldrive.broadcast.MainBroadcast.CONTINUE
ADDED from /Users/vadimzhydenko/Projects/Android/estel_drive_v2/app/src/main/AndroidManifest.xml:69:17-104
	android:name
		ADDED from /Users/vadimzhydenko/Projects/Android/estel_drive_v2/app/src/main/AndroidManifest.xml:69:25-102
receiver#com.zhydenko.vadim.esteldrive.broadcast.BootReceiver
ADDED from /Users/vadimzhydenko/Projects/Android/estel_drive_v2/app/src/main/AndroidManifest.xml:74:9-78:20
	android:enabled
		ADDED from /Users/vadimzhydenko/Projects/Android/estel_drive_v2/app/src/main/AndroidManifest.xml:74:87-110
	android:name
		ADDED from /Users/vadimzhydenko/Projects/Android/estel_drive_v2/app/src/main/AndroidManifest.xml:74:19-86
intent-filter#android.intent.action.BOOT_COMPLETED
ADDED from /Users/vadimzhydenko/Projects/Android/estel_drive_v2/app/src/main/AndroidManifest.xml:75:13-77:29
action#android.intent.action.BOOT_COMPLETED
ADDED from /Users/vadimzhydenko/Projects/Android/estel_drive_v2/app/src/main/AndroidManifest.xml:76:17-78
	android:name
		ADDED from /Users/vadimzhydenko/Projects/Android/estel_drive_v2/app/src/main/AndroidManifest.xml:76:25-76
provider#android.support.v4.content.FileProvider
ADDED from /Users/vadimzhydenko/Projects/Android/estel_drive_v2/app/src/main/AndroidManifest.xml:80:9-89:20
	android:authorities
		ADDED from /Users/vadimzhydenko/Projects/Android/estel_drive_v2/app/src/main/AndroidManifest.xml:82:13-77
	android:enabled
		ADDED from /Users/vadimzhydenko/Projects/Android/estel_drive_v2/app/src/main/AndroidManifest.xml:84:13-35
	android:grantUriPermissions
		ADDED from /Users/vadimzhydenko/Projects/Android/estel_drive_v2/app/src/main/AndroidManifest.xml:85:13-47
	android:exported
		ADDED from /Users/vadimzhydenko/Projects/Android/estel_drive_v2/app/src/main/AndroidManifest.xml:83:13-37
	android:name
		ADDED from /Users/vadimzhydenko/Projects/Android/estel_drive_v2/app/src/main/AndroidManifest.xml:81:13-67
meta-data#android.support.FILE_PROVIDER_PATHS
ADDED from /Users/vadimzhydenko/Projects/Android/estel_drive_v2/app/src/main/AndroidManifest.xml:86:13-88:49
	android:resource
		ADDED from /Users/vadimzhydenko/Projects/Android/estel_drive_v2/app/src/main/AndroidManifest.xml:88:17-46
	android:name
		ADDED from /Users/vadimzhydenko/Projects/Android/estel_drive_v2/app/src/main/AndroidManifest.xml:87:17-67
uses-sdk
INJECTED from /Users/vadimzhydenko/Projects/Android/estel_drive_v2/app/src/main/AndroidManifest.xml reason: use-sdk injection requested
MERGED from [com.android.support:design:25.3.1] /Users/vadimzhydenko/.android/build-cache/88bd9cf3c94b4ed8637c89ddb9bde07248f73efb/output/AndroidManifest.xml:21:5-23:62
MERGED from [com.android.support:transition:25.3.1] /Users/vadimzhydenko/.android/build-cache/62ab71df10c9f1ba3ef428de3f92617c6d18e032/output/AndroidManifest.xml:20:5-44
MERGED from [com.android.support:recyclerview-v7:25.3.1] /Users/vadimzhydenko/.android/build-cache/ab3d74481d4c4dcf63e535d7b858930f77af871b/output/AndroidManifest.xml:20:5-43
MERGED from [com.android.support.constraint:constraint-layout:1.0.2] /Users/vadimzhydenko/.android/build-cache/4e9fc51bdd9997016944ef273f496f8fe1e43f3c/output/AndroidManifest.xml:5:5-7:41
MERGED from [com.facebook.android:facebook-android-sdk:4.25.0] /Users/vadimzhydenko/.android/build-cache/84c48e1c164ec1a7926c6a0b2c118c1b659cd546/output/AndroidManifest.xml:24:5-26:41
MERGED from [com.android.support:customtabs:25.3.1] /Users/vadimzhydenko/.android/build-cache/3b5b67c11931f8a970ba10a2df78eb36bc029c11/output/AndroidManifest.xml:20:5-44
MERGED from [com.github.hotchemi:permissionsdispatcher:2.3.2] /Users/vadimzhydenko/.android/build-cache/099eb58a234294231f7152c02bc3ac8e82960159/output/AndroidManifest.xml:6:5-9:55
MERGED from [com.github.iammert:MaterialIntroView:1.5.2] /Users/vadimzhydenko/.android/build-cache/e896a3510e38ff1a3df11c84904886a5d75aaee2/output/AndroidManifest.xml:7:5-9:41
MERGED from [com.android.support:appcompat-v7:25.3.1] /Users/vadimzhydenko/.android/build-cache/879b255e828808b2cb1eda5d2bc38f288e551266/output/AndroidManifest.xml:21:5-23:78
MERGED from [com.android.support:animated-vector-drawable:25.3.1] /Users/vadimzhydenko/.android/build-cache/1fe06ca1ee5c9481f71ae7be38984b0e9e2cff45/output/AndroidManifest.xml:20:5-44
MERGED from [com.android.support:support-vector-drawable:25.3.1] /Users/vadimzhydenko/.android/build-cache/d6ff55d24045fbfb2aeb896fe5df0fde0392a395/output/AndroidManifest.xml:20:5-43
MERGED from [com.android.support:cardview-v7:25.3.1] /Users/vadimzhydenko/.android/build-cache/9d3000d94cc3773f485f2869754bec94d76ea306/output/AndroidManifest.xml:20:5-43
MERGED from [com.jpardogo.materialtabstrip:library:1.1.1] /Users/vadimzhydenko/.android/build-cache/32627316e6b130025e4b5136d4b24f1a8b4f2556/output/AndroidManifest.xml:5:5-7:41
MERGED from [io.reactivex.rxjava2:rxandroid:2.0.1] /Users/vadimzhydenko/.android/build-cache/fd9e50524ec199936afbf34599a0ffe0f716eefe/output/AndroidManifest.xml:19:5-43
MERGED from [com.crashlytics.sdk.android:crashlytics:2.6.8] /Users/vadimzhydenko/.android/build-cache/c2dda59bdbce7801ab1432d3886016fcb45913c6/output/AndroidManifest.xml:7:5-43
MERGED from [com.crashlytics.sdk.android:beta:1.2.5] /Users/vadimzhydenko/.android/build-cache/50410aa1f86dd279fba2581466958b2448f46be2/output/AndroidManifest.xml:7:5-43
MERGED from [com.crashlytics.sdk.android:crashlytics-core:2.3.17] /Users/vadimzhydenko/.android/build-cache/a5cbe204952951ee5679f4d7b6a058f40ecdff2c/output/AndroidManifest.xml:50:5-43
MERGED from [com.crashlytics.sdk.android:answers:1.3.13] /Users/vadimzhydenko/.android/build-cache/fe91662ee4acd04cc294cea1a6602987520cd673/output/AndroidManifest.xml:7:5-43
MERGED from [io.fabric.sdk.android:fabric:1.3.17] /Users/vadimzhydenko/.android/build-cache/02e4cc1d04d533180751f4597f52ba4eced6cd9b/output/AndroidManifest.xml:27:5-43
MERGED from [com.android.databinding:adapters:1.3.1] /Users/vadimzhydenko/.android/build-cache/f1a48b4b3f7d697974416440ff4cf3433cd37408/output/AndroidManifest.xml:22:5-24:41
MERGED from [com.android.databinding:library:1.3.1] /Users/vadimzhydenko/.android/build-cache/d23efab9f4162416a13c36c0dba9da0123b7aef3/output/AndroidManifest.xml:22:5-24:41
MERGED from [com.android.support:support-v4:25.3.1] /Users/vadimzhydenko/.android/build-cache/b602ab76a11c08f67e7aab7e0717cc1af49002c8/output/AndroidManifest.xml:21:5-23:54
MERGED from [com.android.support:support-fragment:25.3.1] /Users/vadimzhydenko/.android/build-cache/1411b7096fd66e5a1227cab71994a49082b7e131/output/AndroidManifest.xml:21:5-23:60
MERGED from [com.android.support:support-media-compat:25.3.1] /Users/vadimzhydenko/.android/build-cache/cdd53640912ece104106ed986319ba1dac341871/output/AndroidManifest.xml:21:5-23:63
MERGED from [com.android.support:support-core-ui:25.3.1] /Users/vadimzhydenko/.android/build-cache/bd7923df3ad13b2bab6e41456dedc19debc797ef/output/AndroidManifest.xml:21:5-23:58
MERGED from [com.android.support:support-core-utils:25.3.1] /Users/vadimzhydenko/.android/build-cache/4ac593bd09213d150f6a9679353a88a54954573a/output/AndroidManifest.xml:21:5-23:61
MERGED from [com.android.support:support-compat:25.3.1] /Users/vadimzhydenko/.android/build-cache/bd9f17de56356560f8b0ba5daced5e2ae69aca2b/output/AndroidManifest.xml:21:5-23:58
	tools:overrideLibrary
		ADDED from [com.android.support:design:25.3.1] /Users/vadimzhydenko/.android/build-cache/88bd9cf3c94b4ed8637c89ddb9bde07248f73efb/output/AndroidManifest.xml:23:9-59
	android:targetSdkVersion
		INJECTED from /Users/vadimzhydenko/Projects/Android/estel_drive_v2/app/src/main/AndroidManifest.xml
		INJECTED from /Users/vadimzhydenko/Projects/Android/estel_drive_v2/app/src/main/AndroidManifest.xml
	android:minSdkVersion
		INJECTED from /Users/vadimzhydenko/Projects/Android/estel_drive_v2/app/src/main/AndroidManifest.xml
		INJECTED from /Users/vadimzhydenko/Projects/Android/estel_drive_v2/app/src/main/AndroidManifest.xml
meta-data#android.support.VERSION
ADDED from [com.android.support:design:25.3.1] /Users/vadimzhydenko/.android/build-cache/88bd9cf3c94b4ed8637c89ddb9bde07248f73efb/output/AndroidManifest.xml:25:5-27:34
MERGED from [com.android.support:transition:25.3.1] /Users/vadimzhydenko/.android/build-cache/62ab71df10c9f1ba3ef428de3f92617c6d18e032/output/AndroidManifest.xml:22:5-24:34
MERGED from [com.android.support:recyclerview-v7:25.3.1] /Users/vadimzhydenko/.android/build-cache/ab3d74481d4c4dcf63e535d7b858930f77af871b/output/AndroidManifest.xml:22:5-24:34
MERGED from [com.android.support:customtabs:25.3.1] /Users/vadimzhydenko/.android/build-cache/3b5b67c11931f8a970ba10a2df78eb36bc029c11/output/AndroidManifest.xml:22:5-24:34
MERGED from [com.android.support:appcompat-v7:25.3.1] /Users/vadimzhydenko/.android/build-cache/879b255e828808b2cb1eda5d2bc38f288e551266/output/AndroidManifest.xml:25:5-27:34
MERGED from [com.android.support:animated-vector-drawable:25.3.1] /Users/vadimzhydenko/.android/build-cache/1fe06ca1ee5c9481f71ae7be38984b0e9e2cff45/output/AndroidManifest.xml:22:5-24:34
MERGED from [com.android.support:support-vector-drawable:25.3.1] /Users/vadimzhydenko/.android/build-cache/d6ff55d24045fbfb2aeb896fe5df0fde0392a395/output/AndroidManifest.xml:22:5-24:34
MERGED from [com.android.support:cardview-v7:25.3.1] /Users/vadimzhydenko/.android/build-cache/9d3000d94cc3773f485f2869754bec94d76ea306/output/AndroidManifest.xml:22:5-24:34
MERGED from [com.android.support:support-v4:25.3.1] /Users/vadimzhydenko/.android/build-cache/b602ab76a11c08f67e7aab7e0717cc1af49002c8/output/AndroidManifest.xml:25:5-27:34
MERGED from [com.android.support:support-fragment:25.3.1] /Users/vadimzhydenko/.android/build-cache/1411b7096fd66e5a1227cab71994a49082b7e131/output/AndroidManifest.xml:25:5-27:34
MERGED from [com.android.support:support-media-compat:25.3.1] /Users/vadimzhydenko/.android/build-cache/cdd53640912ece104106ed986319ba1dac341871/output/AndroidManifest.xml:25:5-27:34
MERGED from [com.android.support:support-core-ui:25.3.1] /Users/vadimzhydenko/.android/build-cache/bd7923df3ad13b2bab6e41456dedc19debc797ef/output/AndroidManifest.xml:25:5-27:34
MERGED from [com.android.support:support-core-utils:25.3.1] /Users/vadimzhydenko/.android/build-cache/4ac593bd09213d150f6a9679353a88a54954573a/output/AndroidManifest.xml:25:5-27:34
MERGED from [com.android.support:support-compat:25.3.1] /Users/vadimzhydenko/.android/build-cache/bd9f17de56356560f8b0ba5daced5e2ae69aca2b/output/AndroidManifest.xml:25:5-27:34
	android:value
		ADDED from [com.android.support:design:25.3.1] /Users/vadimzhydenko/.android/build-cache/88bd9cf3c94b4ed8637c89ddb9bde07248f73efb/output/AndroidManifest.xml:27:9-31
	android:name
		ADDED from [com.android.support:design:25.3.1] /Users/vadimzhydenko/.android/build-cache/88bd9cf3c94b4ed8637c89ddb9bde07248f73efb/output/AndroidManifest.xml:26:9-47
activity#com.facebook.CustomTabMainActivity
ADDED from [com.facebook.android:facebook-android-sdk:4.25.0] /Users/vadimzhydenko/.android/build-cache/84c48e1c164ec1a7926c6a0b2c118c1b659cd546/output/AndroidManifest.xml:33:9-71
	android:name
		ADDED from [com.facebook.android:facebook-android-sdk:4.25.0] /Users/vadimzhydenko/.android/build-cache/84c48e1c164ec1a7926c6a0b2c118c1b659cd546/output/AndroidManifest.xml:33:19-68
provider#com.facebook.internal.FacebookInitProvider
ADDED from [com.facebook.android:facebook-android-sdk:4.25.0] /Users/vadimzhydenko/.android/build-cache/84c48e1c164ec1a7926c6a0b2c118c1b659cd546/output/AndroidManifest.xml:44:9-47:40
	android:authorities
		ADDED from [com.facebook.android:facebook-android-sdk:4.25.0] /Users/vadimzhydenko/.android/build-cache/84c48e1c164ec1a7926c6a0b2c118c1b659cd546/output/AndroidManifest.xml:46:13-72
	android:exported
		ADDED from [com.facebook.android:facebook-android-sdk:4.25.0] /Users/vadimzhydenko/.android/build-cache/84c48e1c164ec1a7926c6a0b2c118c1b659cd546/output/AndroidManifest.xml:47:13-37
	android:name
		ADDED from [com.facebook.android:facebook-android-sdk:4.25.0] /Users/vadimzhydenko/.android/build-cache/84c48e1c164ec1a7926c6a0b2c118c1b659cd546/output/AndroidManifest.xml:45:13-70
